<?xml version="1.0" standalone="no"?>
<!DOCTYPE svg PUBLIC "-//W3C//DTD SVG 20010904//EN"
 "http://www.w3.org/TR/2001/REC-SVG-20010904/DTD/svg10.dtd">
<svg version="1.0" xmlns="http://www.w3.org/2000/svg"
 width="600.000000pt" height="600.000000pt" viewBox="0 0 600.000000 600.000000"
 preserveAspectRatio="xMidYMid meet">

<g transform="translate(0.000000,600.000000) scale(0.100000,-0.100000)"
fill="#000000" stroke="none">
<path d="M2646 5667 c-16 -12 -18 -27 -17 -112 1 -55 7 -105 13 -112 6 -7 31
-13 59 -13 l49 0 0 -119 0 -119 -82 -12 c-286 -40 -521 -115 -778 -245 -701
-357 -1188 -1035 -1305 -1815 -34 -229 -30 -542 11 -780 112 -653 497 -1240
1059 -1615 140 -94 413 -226 577 -280 257 -84 482 -119 768 -119 286 0 511 35
768 119 164 54 437 186 577 280 562 375 947 962 1059 1615 41 239 45 549 11
780 -75 499 -303 964 -652 1331 l-72 75 87 87 c48 48 92 87 98 87 6 0 23 -13
39 -30 37 -38 73 -39 108 -2 48 50 41 63 -126 230 -172 172 -183 177 -236 117
-17 -20 -31 -40 -31 -45 0 -6 17 -28 37 -51 l37 -40 -97 -97 c-74 -73 -100
-94 -111 -87 -371 270 -741 425 -1163 485 l-83 12 0 119 0 119 48 0 c26 0 53
5 60 12 8 8 12 48 12 115 0 91 -2 103 -19 113 -31 16 -682 14 -705 -3z m234
-915 c0 -71 4 -112 12 -120 16 -16 200 -16 216 0 8 8 12 49 12 120 l0 108 33
0 c52 0 231 -28 330 -51 226 -53 476 -161 670 -289 59 -39 107 -74 107 -78 0
-4 -29 -37 -65 -72 -46 -45 -65 -72 -65 -89 0 -32 115 -151 144 -151 12 0 54
33 99 78 l79 77 80 -85 c298 -316 496 -733 553 -1165 22 -173 33 -155 -94
-155 -139 0 -141 -2 -141 -113 0 -123 4 -127 141 -127 88 0 109 -3 109 -14 0
-48 -35 -267 -56 -355 -80 -324 -226 -611 -447 -876 l-25 -30 -80 78 c-44 42
-87 77 -97 77 -9 0 -46 -28 -81 -62 -85 -82 -85 -92 12 -189 l76 -76 -79 -63
c-330 -267 -693 -413 -1150 -465 l-53 -6 0 110 c0 140 -1 141 -120 141 -119 0
-120 -1 -120 -141 l0 -110 -52 6 c-519 59 -927 243 -1277 577 l-74 70 77 77
c97 97 98 107 12 189 -35 34 -72 62 -81 62 -10 0 -50 -32 -90 -71 l-73 -71
-39 54 c-142 193 -263 458 -327 719 -21 88 -56 307 -56 355 0 11 21 14 109 14
137 0 141 4 141 127 0 111 -2 113 -141 113 -127 0 -116 -18 -94 155 37 284
143 582 296 832 49 80 167 238 201 270 l24 23 74 -75 c43 -44 83 -75 94 -75
31 0 146 119 146 149 0 18 -21 47 -72 98 l-72 72 20 22 c68 75 327 245 491
320 217 100 536 183 721 188 l42 1 0 -108z"/>
<path d="M2345 3321 c-157 -41 -249 -192 -275 -447 -19 -185 9 -382 70 -504
63 -124 147 -176 272 -168 150 10 235 93 290 285 21 70 23 99 23 283 0 167 -4
217 -18 269 -36 128 -100 221 -179 262 -42 22 -138 32 -183 20z m125 -181 c53
-56 80 -183 80 -373 0 -272 -60 -429 -158 -413 -41 6 -68 28 -92 76 -65 128
-68 527 -4 652 47 93 119 117 174 58z"/>
<path d="M2880 2760 l0 -550 85 0 85 0 2 238 3 237 128 3 127 3 0 69 0 69
-127 3 -128 3 -3 163 -2 162 140 0 140 0 0 75 0 75 -225 0 -225 0 0 -550z"/>
<path d="M3480 2760 l0 -550 90 0 90 0 0 240 0 240 130 0 130 0 0 70 0 70
-130 0 -130 0 0 165 0 165 140 0 140 0 0 75 0 75 -230 0 -230 0 0 -550z"/>
</g>
</svg>
