<?xml version="1.0" encoding="utf-8"?>
<!-- Generator: Avocode 2.6.0 - http://avocode.com -->
<svg height="8" width="12" xmlns:xlink="http://www.w3.org/1999/xlink" xmlns="http://www.w3.org/2000/svg" viewBox="0 0 12 8">
    <path fill="#4a4a4a" fill-rule="evenodd" d="M 1.41 0 L 6 4.58 L 10.59 0 L 12 1.41 L 6 7.41 L 0 1.41 L 1.41 0 Z M 1.41 0" />
</svg>